// ============================================================================
//
// = CONTEXT
//   This is part of the Tango binding for LabVIEW
//
// = FILENAME
//   DeviceGroup.i
//
// = AUTHOR
//   Nicolas Leclercq - Synchrotron SOLEIL - France
//
// ============================================================================

// ============================================================================
//
// ============================================================================
LV_INLINE Tango::Group * DeviceGroup::operator-> ()
{
  return g;
}

// ============================================================================
//
// ============================================================================
LV_INLINE Tango::Group * DeviceGroup::group ()
{
  return g;
}

// ============================================================================
//
// ============================================================================
LV_INLINE const DeviceList& DeviceGroup::device_list ()
{
  return dl;
}

// ============================================================================
//
// ============================================================================
LV_INLINE bool DeviceGroup::operator< (const DeviceGroup& _src) const
{
#if defined(_TBFL_64_)
  return (std::int64_t)g < (std::int64_t)_src.g;
#else
  return (std::int32_t)g < (std::int32_t)_src.g;
#endif
}



